{"frames": {

"Idle-0.png":
{
	"frame": {"x":1,"y":67,"w":77,"h":63},
	"rotated": false,
	"trimmed": true,
	"spriteSourceSize": {"x":14,"y":23,"w":77,"h":63},
	"sourceSize": {"w":104,"h":104}
},
"Idle-1.png":
{
	"frame": {"x":1,"y":1,"w":77,"h":64},
	"rotated": false,
	"trimmed": true,
	"spriteSourceSize": {"x":14,"y":20,"w":77,"h":64},
	"sourceSize": {"w":104,"h":104}
}},
"meta": {
	"app": "https://www.codeandweb.com/texturepacker",
	"version": "1.0",
	"image": "bear.png",
	"format": "RGBA8888",
	"size": {"w":79,"h":131},
	"scale": "0.1",
	"smartupdate": "$TexturePacker:SmartUpdate:805257d6fb26dcbb3864aaa9b52dab88:137422d6435e65033e62a676a8af272e:6295e075e3238db0ec40ff984cf0523c$"
}
}
