{
    "posts": [
        {
            "id": "1",
            "parent": "0",
            "timestamp": "1617507351",
            "bumped": "1617507351",
            "name": "Shaun",
            "tripcode": "",
            "subject": "Baaaaaaaa",
            "message": "I'm off to Sweden!<br>",
            "file": "1617507351726.jpg",
            "file_hex": "31920e45fae5d2b11884c627b5175acd",
            "file_original": "STS-SkanesDjurparkHR.jpg",
            "file_size": "63510",
            "file_size_formated": "62.02KB",
            "image_width": "615",
            "image_height": "407",
            "thumb": "1617507351726s.jpg",
            "thumb_width": "250",
            "thumb_height": "165",
            "stickied": "0",
            "locked": "0",
            "replies": 0,
            "images": 1
        }
    ]
}