{
    "posts": [
        {
            "id": "4",
            "parent": "0",
            "timestamp": "1617514798",
            "bumped": "1617514798",
            "name": "( \u0361\u00b0 \u035c\u0296 \u0361\u00b0)",
            "tripcode": "",
            "subject": "",
            "message": "<br>",
            "file": "<iframe width=\"200\" height=\"113\" src=\"\/\/www.youtube.com\/embed\/nZBJnSvGAf0?feature=oembed\" frameborder=\"0\" allow=\"accelerometer; autoplay; clipboard-write; encrypted-media; gyroscope; picture-in-picture\" allowfullscreen><\/iframe>",
            "file_hex": "YouTube",
            "file_original": "Among Us distraction dance animation",
            "file_size": "0",
            "file_size_formated": "",
            "image_width": "480",
            "image_height": "360",
            "thumb": "1617514798593.jpg",
            "thumb_width": "250",
            "thumb_height": "188",
            "stickied": "0",
            "locked": "0",
            "replies": 0,
            "images": 1
        }
    ]
}